{
  "ClockSpeed": 1,
  "SeeDocsAt": "https://github.com/Microsoft/AirSim/blob/master/docs/settings.md",
  "SettingsVersion": 1.2,
  "LocalHostIp": "127.0.0.1",
  "SimMode": "Multirotor",
  "ViewMode": "Manual",
  "CameraDirector": {
    "FollowDistance": -3,
    "X": 598, "Y": -24, "Z": -75,
    "Roll": 0, "Pitch": -90, "Yaw": 0
  },
  "Recording": {
    "RecordOnMove": true,
    "RecordInterval": 0.05,
    "Folder": "/tmp/",
    "Enabled": false,
    "Cameras": []
  },
  "CameraDefaults": {
      "CaptureSettings": [
        {
          "ImageType": 0,
          "Width": 240,
          "Height": 240,
          "FOV_Degrees": 90,
          "AutoExposureSpeed": 100,
          "MotionBlurAmount": 0
        }
    ]
  },
  "SubWindows": [
    {"WindowID": 0, "CameraName": "bottom_center", "VehicleName": "UAV0", "Visible": true, "External": false},
    {"WindowID": 1, "CameraName": "bottom_center", "VehicleName": "UAV1", "Visible": true, "External": false},
    {"WindowID": 2, "CameraName": "bottom_center", "VehicleName": "UAV2", "Visible": true, "External": false}
  ],
  "Vehicles": {
    "UAV0": {
      "VehicleType": "SimpleFlight",
      "X": 600, "Y": -28, "Z": -35,
      "Yaw": 0
    },
    "UAV1": {
      "VehicleType": "SimpleFlight",
      "X": 600, "Y": -24, "Z": -35,
      "Yaw": 15
    },
    "UAV2": {
      "VehicleType": "SimpleFlight",
      "X": 600, "Y": -20, "Z": -35,
      "Yaw": 30
    }
  },
  "MultirotorFormation": {
    "Altitude": -25,
    "TimeHorizon": 30,
    "Perception": "Vision",
    "VelocityControl": {
      "Strategy": "PControl",
      "MaxVelocity": 1,
      "CommandDuration": 0.2
    },
    "FormSequence": [
    {"UAV0": {"X": 0, "Y": 0},
     "UAV1": {"X": 5, "Y": 3},
     "UAV2": {"X": 0, "Y": 6}},
    {"UAV0": {"X": 5, "Y": 3},
     "UAV1": {"X": 0, "Y": 6},
     "UAV2": {"X": 0, "Y": 0}},
    {"UAV0": {"X": 0, "Y": 6},
     "UAV1": {"X": 0, "Y": 0},
     "UAV2": {"X": 5, "Y": 3}}
    ]
  },
  "Weather":{
    "Rain": 0,
    "Roadwetness": 0,
    "Snow": 0,
    "RoadSnow": 0,
    "MapleLeaf": 0,
    "RoadLeaf": 0,
    "Dust": 0,
    "Fog": 0
  }
}
